NRES 776 Lab 3
…
Note: You will need to install readxl package in order to use read_excel() function

Read CSVs

read_csv() take one necessary argument, which is file, a path to a file.

here() can help produce the file relative path

in this example, I have my file my_data.csv locates within a folder called data

my_data <- read_csv(file = here("data", "my_data.csv"))

my_data

# A tibble: 48 x 6
   rock_ID type    area  peri  shape  perm
     <dbl> <chr>  <dbl> <dbl>  <dbl> <dbl>
 1       1 Type D  4990 2792. 0.0903   6.3
 2       2 Type A  7002 3893. 0.149    6.3
 3       3 Type A  7558 3931. 0.183    6.3
 4       4 Type C  7352 3869. 0.117    6.3
 5       5 Type C  7943 3949. 0.122   17.1
 6       6 Type B  7979 4010. 0.167   17.1
 7       7 Type D  9333 4346. 0.190   17.1
 8       8 Type B  8209 4345. 0.164   17.1
 9       9 Type A  8393 3682. 0.204  119  
10      10 Type A  6425 3099. 0.162  119  
# ... with 38 more rows
…
Artwork by Allison Horst

filter()

Keep rows where bill length value larger than 18

penguins %>% 
  filter(bill_depth_mm > 18)

# A tibble: 130 x 8
   species island    bill_length_mm bill_depth_mm flipper_~1 body_~2 sex    year
   <fct>   <fct>              <dbl>         <dbl>      <int>   <int> <fct> <int>
 1 Adelie  Torgersen           39.1          18.7        181    3750 male   2007
 2 Adelie  Torgersen           36.7          19.3        193    3450 fema~  2007
 3 Adelie  Torgersen           39.3          20.6        190    3650 male   2007
 4 Adelie  Torgersen           39.2          19.6        195    4675 male   2007
 5 Adelie  Torgersen           34.1          18.1        193    3475 <NA>   2007
 6 Adelie  Torgersen           42            20.2        190    4250 <NA>   2007
 7 Adelie  Torgersen           38.6          21.2        191    3800 male   2007
 8 Adelie  Torgersen           34.6          21.1        198    4400 male   2007
 9 Adelie  Torgersen           38.7          19          195    3450 fema~  2007
10 Adelie  Torgersen           42.5          20.7        197    4500 male   2007
# ... with 120 more rows, and abbreviated variable names 1: flipper_length_mm,
#   2: body_mass_g

filter()

Keep rows that is NOT measured from Torgersen island

penguins %>% 
  filter(island != "Torgersen")

# A tibble: 292 x 8
   species island bill_length_mm bill_depth_mm flipper_len~1 body_~2 sex    year
   <fct>   <fct>           <dbl>         <dbl>         <int>   <int> <fct> <int>
 1 Adelie  Biscoe           37.8          18.3           174    3400 fema~  2007
 2 Adelie  Biscoe           37.7          18.7           180    3600 male   2007
 3 Adelie  Biscoe           35.9          19.2           189    3800 fema~  2007
 4 Adelie  Biscoe           38.2          18.1           185    3950 male   2007
 5 Adelie  Biscoe           38.8          17.2           180    3800 male   2007
 6 Adelie  Biscoe           35.3          18.9           187    3800 fema~  2007
 7 Adelie  Biscoe           40.6          18.6           183    3550 male   2007
 8 Adelie  Biscoe           40.5          17.9           187    3200 fema~  2007
 9 Adelie  Biscoe           37.9          18.6           172    3150 fema~  2007
10 Adelie  Biscoe           40.5          18.9           180    3950 male   2007
# ... with 282 more rows, and abbreviated variable names 1: flipper_length_mm,
#   2: body_mass_g

filter()

Multiple conditions

penguins %>% 
  filter(species == "Chinstrap" & island == "Dream")

# A tibble: 68 x 8
   species   island bill_length_mm bill_depth_mm flipper_l~1 body_~2 sex    year
   <fct>     <fct>           <dbl>         <dbl>       <int>   <int> <fct> <int>
 1 Chinstrap Dream            46.5          17.9         192    3500 fema~  2007
 2 Chinstrap Dream            50            19.5         196    3900 male   2007
 3 Chinstrap Dream            51.3          19.2         193    3650 male   2007
 4 Chinstrap Dream            45.4          18.7         188    3525 fema~  2007
 5 Chinstrap Dream            52.7          19.8         197    3725 male   2007
 6 Chinstrap Dream            45.2          17.8         198    3950 fema~  2007
 7 Chinstrap Dream            46.1          18.2         178    3250 fema~  2007
 8 Chinstrap Dream            51.3          18.2         197    3750 male   2007
 9 Chinstrap Dream            46            18.9         195    4150 fema~  2007
10 Chinstrap Dream            51.3          19.9         198    3700 male   2007
# ... with 58 more rows, and abbreviated variable names 1: flipper_length_mm,
#   2: body_mass_g
…
Or this, using drop_na() function

penguins %>%
  drop_na(bill_depth_mm)

filter()

Keep rows that contain elements of interest

species_vector <- c("King", "Emperor", "Snares", "Chinstrap")

penguins %>%
  filter(species %in% species_vector)

# A tibble: 68 x 8
   species   island bill_length_mm bill_depth_mm flipper_l~1 body_~2 sex    year
   <fct>     <fct>           <dbl>         <dbl>       <int>   <int> <fct> <int>
 1 Chinstrap Dream            46.5          17.9         192    3500 fema~  2007
 2 Chinstrap Dream            50            19.5         196    3900 male   2007
 3 Chinstrap Dream            51.3          19.2         193    3650 male   2007
 4 Chinstrap Dream            45.4          18.7         188    3525 fema~  2007
 5 Chinstrap Dream            52.7          19.8         197    3725 male   2007
 6 Chinstrap Dream            45.2          17.8         198    3950 fema~  2007
 7 Chinstrap Dream            46.1          18.2         178    3250 fema~  2007
 8 Chinstrap Dream            51.3          18.2         197    3750 male   2007
 9 Chinstrap Dream            46            18.9         195    4150 fema~  2007
10 Chinstrap Dream            51.3          19.9         198    3700 male   2007
# ... with 58 more rows, and abbreviated variable names 1: flipper_length_mm,
#   2: body_mass_g

arrange()

Order rows using column values

penguins %>% 
  arrange(island, desc(bill_length_mm))

# A tibble: 344 x 8
   species island bill_length_mm bill_depth_mm flipper_len~1 body_~2 sex    year
   <fct>   <fct>           <dbl>         <dbl>         <int>   <int> <fct> <int>
 1 Gentoo  Biscoe           59.6          17             230    6050 male   2007
 2 Gentoo  Biscoe           55.9          17             228    5600 male   2009
 3 Gentoo  Biscoe           55.1          16             230    5850 male   2009
 4 Gentoo  Biscoe           54.3          15.7           231    5650 male   2008
 5 Gentoo  Biscoe           53.4          15.8           219    5500 male   2009
 6 Gentoo  Biscoe           52.5          15.6           221    5450 male   2009
 7 Gentoo  Biscoe           52.2          17.1           228    5400 male   2009
 8 Gentoo  Biscoe           52.1          17             230    5550 male   2009
 9 Gentoo  Biscoe           51.5          16.3           230    5500 male   2009
10 Gentoo  Biscoe           51.3          14.2           218    5300 male   2009
# ... with 334 more rows, and abbreviated variable names 1: flipper_length_mm,
#   2: body_mass_g
…
Your turn

Remove all the rows that have any NA in their values

Keep observations that measured in 2007

Arrange the rows based on flipper length, from high to low

penguins %>%
  ___() %>%
  filter(year ___ 2007) %>%
  ___(___(flipper_length_mm))

# A tibble: 103 x 8
   species island bill_length_mm bill_depth_mm flipper_len~1 body_~2 sex    year
   <fct>   <fct>           <dbl>         <dbl>         <int>   <int> <fct> <int>
 1 Gentoo  Biscoe           50            16.3           230    5700 male   2007
 2 Gentoo  Biscoe           59.6          17             230    6050 male   2007
 3 Gentoo  Biscoe           48.7          15.1           222    5350 male   2007
 4 Gentoo  Biscoe           47.3          15.3           222    5250 male   2007
 5 Gentoo  Biscoe           49.2          15.2           221    6300 male   2007
 6 Gentoo  Biscoe           50            15.3           220    5550 male   2007
 7 Gentoo  Biscoe           46.7          15.3           219    5200 male   2007
 8 Gentoo  Biscoe           50            15.2           218    5700 male   2007
 9 Gentoo  Biscoe           50.2          14.3           218    5700 male   2007
10 Gentoo  Biscoe           49.3          15.7           217    5850 male   2007
# ... with 93 more rows, and abbreviated variable names 1: flipper_length_mm,
#   2: body_mass_g

Your turn

Remove all the rows that have any NA in their values

Keep observations that measured in 2007

Arrange the rows based on flipper length, from high to low

penguins %>%
  drop_na() %>%
  filter(year == 2007) %>%
  arrange(desc(flipper_length_mm))

# A tibble: 103 x 8
   species island bill_length_mm bill_depth_mm flipper_len~1 body_~2 sex    year
   <fct>   <fct>           <dbl>         <dbl>         <int>   <int> <fct> <int>
 1 Gentoo  Biscoe           50            16.3           230    5700 male   2007
 2 Gentoo  Biscoe           59.6          17             230    6050 male   2007
 3 Gentoo  Biscoe           48.7          15.1           222    5350 male   2007
 4 Gentoo  Biscoe           47.3          15.3           222    5250 male   2007
 5 Gentoo  Biscoe           49.2          15.2           221    6300 male   2007
 6 Gentoo  Biscoe           50            15.3           220    5550 male   2007
 7 Gentoo  Biscoe           46.7          15.3           219    5200 male   2007
 8 Gentoo  Biscoe           50            15.2           218    5700 male   2007
 9 Gentoo  Biscoe           50.2          14.3           218    5700 male   2007
10 Gentoo  Biscoe           49.3          15.7           217    5850 male   2007
# ... with 93 more rows, and abbreviated variable names 1: flipper_length_mm,
#   2: body_mass_g
…
group_by()

group_by() & ungroup()

Group by one or more variables

Let’s take a look

It looks almost the same as the original tibble

Notice the extra “Group” info

penguins 

# A tibble: 344 x 8
   species island    bill_length_mm bill_depth_mm flipper_~1 body_~2 sex    year
   <fct>   <fct>              <dbl>         <dbl>      <int>   <int> <fct> <int>
 1 Adelie  Torgersen           39.1          18.7        181    3750 male   2007
 2 Adelie  Torgersen           39.5          17.4        186    3800 fema~  2007
 3 Adelie  Torgersen           40.3          18          195    3250 fema~  2007
 4 Adelie  Torgersen           NA            NA           NA      NA <NA>   2007
 5 Adelie  Torgersen           36.7          19.3        193    3450 fema~  2007
 6 Adelie  Torgersen           39.3          20.6        190    3650 male   2007
 7 Adelie  Torgersen           38.9          17.8        181    3625 fema~  2007
 8 Adelie  Torgersen           39.2          19.6        195    4675 male   2007
 9 Adelie  Torgersen           34.1          18.1        193    3475 <NA>   2007
10 Adelie  Torgersen           42            20.2        190    4250 <NA>   2007
# ... with 334 more rows, and abbreviated variable names 1: flipper_length_mm,
#   2: body_mass_g

penguins %>% 
  group_by(species, island) 

# A tibble: 344 x 8
# Groups:   species, island [5]
   species island    bill_length_mm bill_depth_mm flipper_~1 body_~2 sex    year
   <fct>   <fct>              <dbl>         <dbl>      <int>   <int> <fct> <int>
 1 Adelie  Torgersen           39.1          18.7        181    3750 male   2007
 2 Adelie  Torgersen           39.5          17.4        186    3800 fema~  2007
 3 Adelie  Torgersen           40.3          18          195    3250 fema~  2007
 4 Adelie  Torgersen           NA            NA           NA      NA <NA>   2007
 5 Adelie  Torgersen           36.7          19.3        193    3450 fema~  2007
 6 Adelie  Torgersen           39.3          20.6        190    3650 male   2007
 7 Adelie  Torgersen           38.9          17.8        181    3625 fema~  2007
 8 Adelie  Torgersen           39.2          19.6        195    4675 male   2007
 9 Adelie  Torgersen           34.1          18.1        193    3475 <NA>   2007
10 Adelie  Torgersen           42            20.2        190    4250 <NA>   2007
# ... with 334 more rows, and abbreviated variable names 1: flipper_length_mm,
#   2: body_mass_g

Use with mutate()

Calculate the difference between flipper length and their species means

penguins %>%
  group_by(species) %>%
  mutate(flipper_lengh_dif = flipper_length_mm - mean(flipper_length_mm, na.rm = TRUE)) 

# A tibble: 344 x 9
# Groups:   species [3]
   species island    bill_length_mm bill_d~1 flipp~2 body_~3 sex    year flipp~4
   <fct>   <fct>              <dbl>    <dbl>   <int>   <int> <fct> <int>   <dbl>
 1 Adelie  Torgersen           39.1     18.7     181    3750 male   2007 -8.95  
 2 Adelie  Torgersen           39.5     17.4     186    3800 fema~  2007 -3.95  
 3 Adelie  Torgersen           40.3     18       195    3250 fema~  2007  5.05  
 4 Adelie  Torgersen           NA       NA        NA      NA <NA>   2007 NA     
 5 Adelie  Torgersen           36.7     19.3     193    3450 fema~  2007  3.05  
 6 Adelie  Torgersen           39.3     20.6     190    3650 male   2007  0.0464
 7 Adelie  Torgersen           38.9     17.8     181    3625 fema~  2007 -8.95  
 8 Adelie  Torgersen           39.2     19.6     195    4675 male   2007  5.05  
 9 Adelie  Torgersen           34.1     18.1     193    3475 <NA>   2007  3.05  
10 Adelie  Torgersen           42       20.2     190    4250 <NA>   2007  0.0464
# ... with 334 more rows, and abbreviated variable names 1: bill_depth_mm,
#   2: flipper_length_mm, 3: body_mass_g, 4: flipper_lengh_dif
…
pivot_longer()

relig_income %>%
  pivot_longer(!religion, names_to = "income", values_to = "count")

# A tibble: 180 x 3
   religion income             count
   <chr>    <chr>              <dbl>
 1 Agnostic <$10k                 27
 2 Agnostic $10-20k               34
 3 Agnostic $20-30k               60
 4 Agnostic $30-40k               81
 5 Agnostic $40-50k               76
 6 Agnostic $50-75k              137
 7 Agnostic $75-100k             122
 8 Agnostic $100-150k            109
 9 Agnostic >150k                 84
10 Agnostic Don't know/refused    96
# ... with 170 more rows

pivot_wider()

fish_encounters

# A tibble: 114 x 3
   fish  station  seen
   <fct> <fct>   <int>
 1 4842  Release     1
 2 4842  I80_1       1
 3 4842  Lisbon      1
 4 4842  Rstr        1
 5 4842  Base_TD     1
 6 4842  BCE         1
 7 4842  BCW         1
 8 4842  BCE2        1
 9 4842  BCW2        1
10 4842  MAE         1
# ... with 104 more rows
…
