…
A survey was done on 50 islands for the incidence of a bird species Grasshopper Warbler. Researchers want to know whether the incidence is related to the area and/or the isolation level of the islands.

::: columns
::: {.column width="50%"}
### Long format

-   Each row is an individual observation

-   Binary output


::: {.cell}
::: {.cell-output .cell-output-stdout}
```
# A tibble: 50 × 3
   incidence  area isolation
   <fct>     <dbl> <fct>    
 1 1          7.93 low      
 2 0          1.92 high     
 3 1          2.04 median   
 4 0          4.78 median   
 5 0          1.54 median   
 6 1          7.37 low      
 7 1          8.60 low      
 8 0          2.42 high     
 9 1          6.40 median   
10 1          7.20 median   
# ℹ 40 more rows
```
…
    -   e.g., probability of eggs hatching in a nest -\> nest success? or success of individual eggs?

## Research question (1 categorical x)

A survey was done on 50 islands for the incidence of a bird species Grasshopper Warbler. Researchers want to know whether the incidence is related to the area and/or the isolation level of the islands.

::: columns
::: {.column width="50%"}
### Use long format as input


::: {.cell}
::: {.cell-output .cell-output-stdout}
```
# A tibble: 50 × 3
   incidence  area isolation
   <fct>     <dbl> <fct>    
 1 1          7.93 low      
 2 0          1.92 high     
 3 1          2.04 median   
 4 0          4.78 median   
 5 0          1.54 median   
 6 1          7.37 low      
 7 1          8.60 low      
 8 0          2.42 high     
 9 1          6.40 median   
10 1          7.20 median   
# ℹ 40 more rows
```
…
-   Use `predict()` and specify `type = "response"` to get back transformed $y_i$


::: {.cell}

```{.r .cell-code}
incidence_p <- data_long %>%
  mutate(incidence_p = predict(incidence_binom_add, type = "response"))

incidence_p
```

::: {.cell-output .cell-output-stdout}
```
# A tibble: 50 × 4
   incidence  area isolation incidence_p
   <fct>     <dbl> <fct>           <dbl>
 1 1          7.93 low          1.00e+ 0
 2 0          1.92 high         6.11e-10
 3 1          2.04 median       4.80e- 1
 4 0          4.78 median       7.79e- 1
 5 0          1.54 median       4.19e- 1
 6 1          7.37 low          1.00e+ 0
 7 1          8.60 low          1.00e+ 0
 8 0          2.42 high         7.79e-10
 9 1          6.40 median       8.86e- 1
10 1          7.20 median       9.20e- 1
# ℹ 40 more rows
```
…
-   Or, use `fitted()`, which provides back transformed $y_i$ by default


::: {.cell}

```{.r .cell-code}
incidence_p <- data_long %>%
  mutate(incidence_p = fitted(incidence_binom_add))

incidence_p
```

::: {.cell-output .cell-output-stdout}
```
# A tibble: 50 × 4
   incidence  area isolation incidence_p
   <fct>     <dbl> <fct>           <dbl>
 1 1          7.93 low          1.00e+ 0
 2 0          1.92 high         6.11e-10
 3 1          2.04 median       4.80e- 1
 4 0          4.78 median       7.79e- 1
 5 0          1.54 median       4.19e- 1
 6 1          7.37 low          1.00e+ 0
 7 1          8.60 low          1.00e+ 0
 8 0          2.42 high         7.79e-10
 9 1          6.40 median       8.86e- 1
10 1          7.20 median       9.20e- 1
# ℹ 40 more rows
```
…
## Research question (1 continuous x)

A survey was done on 50 islands for the incidence of a bird species Grasshopper Warbler. Researchers want to know whether the incidence is related to the area and/or the isolation level of the islands.

::: columns
::: {.column width="50%"}
### Use long format as input


::: {.cell}
::: {.cell-output .cell-output-stdout}
```
# A tibble: 50 × 3
   incidence  area isolation
   <fct>     <dbl> <fct>    
 1 1          7.93 low      
 2 0          1.92 high     
 3 1          2.04 median   
 4 0          4.78 median   
 5 0          1.54 median   
 6 1          7.37 low      
 7 1          8.60 low      
 8 0          2.42 high     
 9 1          6.40 median   
10 1          7.20 median   
# ℹ 40 more rows
```
…
-   Use `predict()` and specify `type = "response"` to get back transformed $y_i$


::: {.cell}

```{.r .cell-code}
incidence_p <- data_long %>%   
  mutate(incidence_p = predict(incidence_binom_add, type = "response")) 
incidence_p
```

::: {.cell-output .cell-output-stdout}
```
# A tibble: 50 × 4
   incidence  area isolation incidence_p
   <fct>     <dbl> <fct>           <dbl>
 1 1          7.93 low          1.00e+ 0
 2 0          1.92 high         6.11e-10
 3 1          2.04 median       4.80e- 1
 4 0          4.78 median       7.79e- 1
 5 0          1.54 median       4.19e- 1
 6 1          7.37 low          1.00e+ 0
 7 1          8.60 low          1.00e+ 0
 8 0          2.42 high         7.79e-10
 9 1          6.40 median       8.86e- 1
10 1          7.20 median       9.20e- 1
# ℹ 40 more rows
```
…
